<?xml version="1.0" standalone="no"?>
<!DOCTYPE svg PUBLIC "-//W3C//DTD SVG 1.1//EN" "http://www.w3.org/Graphics/SVG/1.1/DTD/svg11.dtd">
<svg xmlns="http://www.w3.org/2000/svg">
<metadata>Copyright (C) 2016 by original authors @ fontello.com</metadata>
<defs>
<font id="fontello" horiz-adv-x="1000" >
<font-face font-family="fontello" font-weight="400" font-stretch="normal" units-per-em="1000" ascent="850" descent="-150" />
<missing-glyph horiz-adv-x="1000" />
<glyph glyph-name="table-expand" unicode="&#xe800;" d="M573 329l-470-471c-9-8-17-8-26-8s-17 0-26 8l-42 52c-9 8-9 17-9 25 0 9 0 18 9 26l393 393-393 393c-9 0-9 9-9 18s0 17 9 25l51 52c8 8 17 8 26 8s17 0 25-8l470-471c9-8 9-17 9-25s-9-9-17-17z" horiz-adv-x="581" />

<glyph glyph-name="table-expanded" unicode="&#xe801;" d="M824-135l-809 809c-15 0-15 14-15 29 0 15 0 29 15 44l88 88c15 15 29 15 44 15 15 0 30 0 44-15l677-676 676 676c0 15 15 15 30 15 14 0 29 0 44-15l88-88c15-15 15-29 15-44s0-29-15-44l-809-794c-15-15-29-15-44-15s-29 0-29 15z" horiz-adv-x="1721" />

<glyph glyph-name="exclamation-square" unicode="&#xe804;" d="M846 850h-692c-85 0-154-69-154-154v-692c0-85 69-154 154-154h692c85 0 154 69 154 154v692c0 85-69 154-154 154z m-423-785v116c0 8 8 23 23 23h116c7 0 15-8 15-23v-116c0-7-8-23-15-23h-123c-8 0-16 8-16 23z m154 208c0-8-8-15-23-15h-108c-7 0-23 7-23 15l-8 377c0 8 0 8 8 8 0 0 8 7 16 7h130c8 0 8 0 16-7 7 0 7-8 7-8l-15-377z" horiz-adv-x="1000" />
</font>
</defs>
</svg>