<?xml version="1.0" encoding="utf-8"?>
<!-- Generator: Adobe Illustrator 17.1.0, SVG Export Plug-In . SVG Version: 6.00 Build 0)  -->
<!DOCTYPE svg PUBLIC "-//W3C//DTD SVG 1.1//EN" "http://www.w3.org/Graphics/SVG/1.1/DTD/svg11.dtd">
<svg version="1.1" id="Layer_1" xmlns="http://www.w3.org/2000/svg" xmlns:xlink="http://www.w3.org/1999/xlink" x="0px" y="0px"
	 viewBox="0 0 14.7 14.7" enable-background="new 0 0 14.7 14.7" xml:space="preserve">
<g>
	<g>
		<path fill="#676767" d="M7.4,14.2c-3.8,0-6.9-3.1-6.9-6.9c0-3.8,3.1-6.9,6.9-6.9c3.8,0,6.9,3.1,6.9,6.9
			C14.2,11.1,11.1,14.2,7.4,14.2z M2.5,7.4c0,2.7,2.2,4.9,4.9,4.9s4.9-2.2,4.9-4.9S10,2.5,7.4,2.5S2.5,4.7,2.5,7.4z"/>
		<path fill="#676767" d="M7.4,14.7C3.3,14.7,0,11.4,0,7.4S3.3,0,7.4,0s7.4,3.3,7.4,7.4S11.4,14.7,7.4,14.7z M7.4,1
			C3.9,1,1,3.9,1,7.4c0,3.5,2.9,6.4,6.4,6.4s6.4-2.9,6.4-6.4C13.7,3.9,10.9,1,7.4,1z M7.4,12.7c-3,0-5.4-2.4-5.4-5.4
			C2,4.4,4.4,2,7.4,2s5.4,2.4,5.4,5.4C12.7,10.3,10.3,12.7,7.4,12.7z M7.4,3C5,3,3,5,3,7.4c0,2.4,2,4.4,4.4,4.4c2.4,0,4.4-2,4.4-4.4
			C11.7,5,9.8,3,7.4,3z"/>
	</g>
</g>
<g>
</g>
<g>
</g>
<g>
</g>
<g>
</g>
<g>
</g>
<g>
</g>
</svg>
