<?xml version="1.0" encoding="utf-8"?>
<!-- Generator: Adobe Illustrator 17.1.0, SVG Export Plug-In . SVG Version: 6.00 Build 0)  -->
<!DOCTYPE svg PUBLIC "-//W3C//DTD SVG 1.1//EN" "http://www.w3.org/Graphics/SVG/1.1/DTD/svg11.dtd">
<svg version="1.1" id="Layer_1" xmlns="http://www.w3.org/2000/svg" xmlns:xlink="http://www.w3.org/1999/xlink" x="0px" y="0px"
	 viewBox="0 0 23.9 11.1" enable-background="new 0 0 23.9 11.1" xml:space="preserve">
<g>
	<image overflow="visible" width="114" height="91" xlink:href="877E5C5E.png"  transform="matrix(0.24 0 0 0.24 -2.3865 -5.3561)">
	</image>
	<g>
		<polygon fill="#FFFFFF" points="4.6,-1 17.8,-1 11.3,7.4 		"/>
		<polygon fill="none" stroke="#CDCCCC" stroke-miterlimit="10" points="4.6,-0.5 17.8,-0.5 11.3,7.9 		"/>
	</g>
</g>
</svg>
