<?xml version="1.0" encoding="utf-8"?>
<!-- Generator: Adobe Illustrator 17.1.0, SVG Export Plug-In . SVG Version: 6.00 Build 0)  -->
<!DOCTYPE svg PUBLIC "-//W3C//DTD SVG 1.1//EN" "http://www.w3.org/Graphics/SVG/1.1/DTD/svg11.dtd">
<svg version="1.1" id="Layer_1" xmlns="http://www.w3.org/2000/svg" xmlns:xlink="http://www.w3.org/1999/xlink" x="0px" y="0px"
	 viewBox="0 0 6.8 11.7" enable-background="new 0 0 6.8 11.7" xml:space="preserve">
<path fill="#4075BA" d="M6.7,6.1l-5.5,5.5c-0.1,0.1-0.2,0.1-0.3,0.1s-0.2,0-0.3-0.1L0.1,11C0,10.9,0,10.8,0,10.7
	c0-0.1,0-0.2,0.1-0.3l4.6-4.6L0.1,1.2C0,1.2,0,1.1,0,1s0-0.2,0.1-0.3l0.6-0.6C0.8,0,0.9,0,1,0s0.2,0,0.3,0.1l5.5,5.5
	c0.1,0.1,0.1,0.2,0.1,0.3S6.8,6,6.7,6.1z"/>
</svg>
